%YAML 1.1
%TAG !u! tag:unity3d.com,2011:
--- !u!114 &11400000
MonoBehaviour:
  m_ObjectHideFlags: 0
  m_CorrespondingSourceObject: {fileID: 0}
  m_PrefabInstance: {fileID: 0}
  m_PrefabAsset: {fileID: 0}
  m_GameObject: {fileID: 0}
  m_Enabled: 1
  m_EditorHideFlags: 0
  m_Script: {fileID: 11500000, guid: c30a4279a98a82d4ea21c59baa46b396, type: 3}
  m_Name: BuilderProjectSettings
  m_EditorClassIdentifier: 
  IsFirstTimeStarted: 0
  ProjectBuilderVersion: 2.4.0
